{
    "key": "group_5a572a3009ce7",
    "title": "Tuotteiden lisäkentät",
    "fields": [
        {
            "key": "field_5a572a374a626",
            "label": "Esimerkkikuvan otsikko",
            "name": "esimerkkikuvan_otsikko",
            "type": "text",
            "instructions": "Esim. \"Esimerkki kunto-ohjelmasta\".\r\n\r\nMikäli tätä ei aseteta, näytetään tekstin tilalla lause \"Kuvia palvelusta\"",
            "required": 0,
            "conditional_logic": 0,
            "wrapper": {
                "width": "",
                "class": "",
                "id": ""
            },
            "default_value": "",
            "placeholder": "",
            "prepend": "",
            "append": "",
            "maxlength": ""
        },
        {
            "key": "field_5a572a844a627",
            "label": "Esimerkkikuvan valinnainen kuvausteksti",
            "name": "esimerkkikuvan_kuvausteksti",
            "type": "wysiwyg",
            "instructions": "Mikäli haluat, että otsikon ja kuvan välissä on jotain tarkentavaa tekstiä, kirjoita se tähän.",
            "required": 0,
            "conditional_logic": 0,
            "wrapper": {
                "width": "",
                "class": "",
                "id": ""
            },
            "default_value": "",
            "tabs": "all",
            "toolbar": "full",
            "media_upload": 0,
            "delay": 0
        },
        {
            "key": "field_5a572f624c181",
            "label": "Esimerkkikuvat",
            "name": "esimerkkikuvat",
            "type": "gallery",
            "instructions": "",
            "required": 0,
            "conditional_logic": 0,
            "wrapper": {
                "width": "",
                "class": "",
                "id": ""
            },
            "min": 1,
            "max": "",
            "insert": "append",
            "library": "all",
            "min_width": 600,
            "min_height": "",
            "min_size": "",
            "max_width": "",
            "max_height": "",
            "max_size": "",
            "mime_types": "jpg,jpeg,pdf"
        }
    ],
    "location": [
        [
            {
                "param": "post_type",
                "operator": "==",
                "value": "product"
            }
        ]
    ],
    "menu_order": 500,
    "position": "side",
    "style": "default",
    "label_placement": "top",
    "instruction_placement": "label",
    "hide_on_screen": "",
    "active": 1,
    "description": "",
    "modified": 1515663245
}