{
    "key": "group_5a3a627eab3a9",
    "title": "Lisäasetukset",
    "fields": [
        {
            "key": "field_5a3a628850700",
            "label": "Treenivinkit-banneri",
            "name": "treenivinkit-banneri",
            "type": "group",
            "instructions": "Treenivinkit-bannerin asetukset",
            "required": 0,
            "conditional_logic": 0,
            "wrapper": {
                "width": "",
                "class": "",
                "id": ""
            },
            "layout": "block",
            "sub_fields": [
                {
                    "key": "field_5a3a62b750701",
                    "label": "Otsikko",
                    "name": "otsikko",
                    "type": "text",
                    "instructions": "",
                    "required": 0,
                    "conditional_logic": 0,
                    "wrapper": {
                        "width": "60",
                        "class": "",
                        "id": ""
                    },
                    "default_value": "Treenivinkit ammattilaisilta",
                    "placeholder": "",
                    "prepend": "",
                    "append": "",
                    "maxlength": ""
                },
                {
                    "key": "field_5a3a62cf50702",
                    "label": "Taustakuva",
                    "name": "taustakuva",
                    "type": "image",
                    "instructions": "Käytä tarpeeksi isoa kuvaa",
                    "required": 0,
                    "conditional_logic": 0,
                    "wrapper": {
                        "width": "40",
                        "class": "",
                        "id": ""
                    },
                    "return_format": "array",
                    "preview_size": "thumbnail",
                    "library": "all",
                    "min_width": "",
                    "min_height": "",
                    "min_size": "",
                    "max_width": "",
                    "max_height": "",
                    "max_size": "",
                    "mime_types": ""
                },
                {
                    "key": "field_5a3b7d8f278b2",
                    "label": "Treenivinkit-linkin teksti",
                    "name": "treenivinkit_teksti",
                    "type": "text",
                    "instructions": "Tämä on treenivinkit-painikkeen teksti",
                    "required": 0,
                    "conditional_logic": 0,
                    "wrapper": {
                        "width": "50",
                        "class": "",
                        "id": ""
                    },
                    "default_value": "",
                    "placeholder": "",
                    "prepend": "",
                    "append": "",
                    "maxlength": ""
                },
                {
                    "key": "field_5a3b7dac278b3",
                    "label": "treenivinkit-ohjaus",
                    "name": "treenivinkit_ohjaus",
                    "type": "taxonomy",
                    "instructions": "Valitse se sivu tai categoria, johon haluat painikkeen ohjaavan",
                    "required": 0,
                    "conditional_logic": 0,
                    "wrapper": {
                        "width": "50",
                        "class": "",
                        "id": ""
                    },
                    "taxonomy": "category",
                    "field_type": "radio",
                    "allow_null": 0,
                    "add_term": 1,
                    "save_terms": 0,
                    "load_terms": 0,
                    "return_format": "id",
                    "multiple": 0
                },
                {
                    "key": "field_5a3b7d3d278b0",
                    "label": "Blogi-linkin teksti",
                    "name": "blogilinkin_teksti",
                    "type": "text",
                    "instructions": "Näkyy vain mobiilissa",
                    "required": 0,
                    "conditional_logic": 0,
                    "wrapper": {
                        "width": "50",
                        "class": "",
                        "id": ""
                    },
                    "default_value": "",
                    "placeholder": "",
                    "prepend": "",
                    "append": "",
                    "maxlength": ""
                },
                {
                    "key": "field_5a3b7d5d278b1",
                    "label": "Blogi-linkin categoria",
                    "name": "blogilinkin_categoria",
                    "type": "taxonomy",
                    "instructions": "Valitse se kategoria johon haluat linkin ohjaavan.",
                    "required": 0,
                    "conditional_logic": 0,
                    "wrapper": {
                        "width": "50",
                        "class": "",
                        "id": ""
                    },
                    "taxonomy": "category",
                    "field_type": "checkbox",
                    "allow_null": 0,
                    "add_term": 1,
                    "save_terms": 0,
                    "load_terms": 0,
                    "return_format": "id",
                    "multiple": 0
                }
            ]
        },
        {
            "key": "field_5a3b8d1f902a7",
            "label": "Google-asetukset",
            "name": "google",
            "type": "group",
            "instructions": "Liitä täältä Googlen seurantakoodi jota sivustollasi käytetään.",
            "required": 0,
            "conditional_logic": 0,
            "wrapper": {
                "width": "",
                "class": "",
                "id": ""
            },
            "layout": "block",
            "sub_fields": [
                {
                    "key": "field_5a3b8d4d902a8",
                    "label": "Lisätäänkö seurantatunnus?",
                    "name": "google_analytics_enabled",
                    "type": "true_false",
                    "instructions": "",
                    "required": 0,
                    "conditional_logic": 0,
                    "wrapper": {
                        "width": "30",
                        "class": "",
                        "id": ""
                    },
                    "message": "",
                    "default_value": 0,
                    "ui": 0,
                    "ui_on_text": "",
                    "ui_off_text": ""
                },
                {
                    "key": "field_5a3b8d7a902a9",
                    "label": "Seurantatunnus",
                    "name": "seurantatunnus",
                    "type": "text",
                    "instructions": "Seurantatunnus on muotoa: UA-xxxxxxxxxxxxx-y",
                    "required": 0,
                    "conditional_logic": [
                        [
                            {
                                "field": "field_5a3b8d4d902a8",
                                "operator": "==",
                                "value": "1"
                            }
                        ]
                    ],
                    "wrapper": {
                        "width": "",
                        "class": "",
                        "id": ""
                    },
                    "default_value": "",
                    "placeholder": "",
                    "prepend": "",
                    "append": "",
                    "maxlength": ""
                }
            ]
        },
        {
            "key": "field_5a54747404c19",
            "label": "Bonusway-asetukset",
            "name": "bonsuway",
            "type": "group",
            "instructions": "Käytetäänkö Bonuswayn konversioseurantaa?",
            "required": 0,
            "conditional_logic": 0,
            "wrapper": {
                "width": "",
                "class": "",
                "id": ""
            },
            "layout": "block",
            "sub_fields": [
                {
                    "key": "field_5a54747504c1a",
                    "label": "Lisätäänkö seurantatunnus?",
                    "name": "bonusway_enabled",
                    "type": "true_false",
                    "instructions": "",
                    "required": 0,
                    "conditional_logic": 0,
                    "wrapper": {
                        "width": "50",
                        "class": "",
                        "id": ""
                    },
                    "message": "",
                    "default_value": 0,
                    "ui": 0,
                    "ui_on_text": "",
                    "ui_off_text": ""
                },
                {
                    "key": "field_5a5474ab04c1c",
                    "label": "Bonsuway verotus",
                    "name": "bonsuway_taxmodel",
                    "type": "radio",
                    "instructions": "",
                    "required": 0,
                    "conditional_logic": 0,
                    "wrapper": {
                        "width": "50",
                        "class": "",
                        "id": ""
                    },
                    "choices": {
                        "zero_rate": "Veroton hinta",
                        "taxed": "Verollinen hinta"
                    },
                    "allow_null": 0,
                    "other_choice": 0,
                    "save_other_choice": 0,
                    "default_value": "taxed",
                    "layout": "horizontal",
                    "return_format": "value"
                }
            ]
        },
        {
            "key": "field_5a3cfc246ee1d",
            "label": "Verkkokaupan asetukset",
            "name": "verkkokaupan_asetukset",
            "type": "group",
            "instructions": "",
            "required": 0,
            "conditional_logic": 0,
            "wrapper": {
                "width": "",
                "class": "",
                "id": ""
            },
            "layout": "block",
            "sub_fields": [
                {
                    "key": "field_5a3cfc3a6ee1e",
                    "label": "Näytetäänkö kaupan pikalinkit sivun otsikon alla?",
                    "name": "show_shop_shortcuts",
                    "type": "true_false",
                    "instructions": "",
                    "required": 0,
                    "conditional_logic": 0,
                    "wrapper": {
                        "width": "",
                        "class": "",
                        "id": ""
                    },
                    "message": "Näytä verkkokaupan pikalinkit",
                    "default_value": 0,
                    "ui": 1,
                    "ui_on_text": "Kyllä",
                    "ui_off_text": "Ei"
                }
            ]
        }
    ],
    "location": [
        [
            {
                "param": "options_page",
                "operator": "==",
                "value": "teeman-asetukset"
            }
        ]
    ],
    "menu_order": 0,
    "position": "normal",
    "style": "seamless",
    "label_placement": "top",
    "instruction_placement": "label",
    "hide_on_screen": "",
    "active": 1,
    "description": "",
    "modified": 1515486464
}